{
    "prepare_queue": {
        "installed": [],
        "uninstalled": []
    },
    "config_munge": {
        "files": {
            "framework": {
                "parents": {
                    "CoreLocation.framework": [
                        {
                            "xml": false,
                            "count": 1
                        }
                    ],
                    "libsqlite3.dylib": [
                        {
                            "xml": false,
                            "count": 1
                        }
                    ],
                    "Social.framework": [
                        {
                            "xml": true,
                            "count": 1
                        }
                    ],
                    "Accounts.framework": [
                        {
                            "xml": true,
                            "count": 1
                        }
                    ],
                    "Security.framework": [
                        {
                            "xml": true,
                            "count": 1
                        }
                    ]
                }
            },
            "config.xml": {
                "parents": {
                    "/*": [
                        {
                            "xml": "<feature name=\"Geolocation\"><param name=\"ios-package\" value=\"CDVLocation\" /></feature>",
                            "count": 1
                        },
                        {
                            "xml": "<feature name=\"FacebookConnectPlugin\"><param name=\"ios-package\" value=\"FacebookConnectPlugin\" /><param name=\"onload\" value=\"true\" /></feature>",
                            "count": 1
                        },
                        {
                            "xml": "<plugin name=\"FacebookConnectPlugin\" value=\"FacebookConnectPlugin\" />",
                            "count": 1
                        },
                        {
                            "xml": "<access origin=\"https://m.facebook.com\" />",
                            "count": 1
                        },
                        {
                            "xml": "<access origin=\"https://graph.facebook.com\" />",
                            "count": 1
                        },
                        {
                            "xml": "<access origin=\"https://api.facebook.com\" />",
                            "count": 1
                        },
                        {
                            "xml": "<access origin=\"https://*.fbcdn.net\" />",
                            "count": 1
                        },
                        {
                            "xml": "<access origin=\"https://*.akamaihd.net\" />",
                            "count": 1
                        }
                    ]
                }
            },
            "*-Info.plist": {
                "parents": {
                    "NSLocationWhenInUseUsageDescription": [
                        {
                            "xml": "<string />",
                            "count": 1
                        }
                    ],
                    "FacebookAppID": [
                        {
                            "xml": "<string>193596074317017</string>",
                            "count": 1
                        }
                    ],
                    "FacebookDisplayName": [
                        {
                            "xml": "<string>Cofeine Test</string>",
                            "count": 1
                        }
                    ],
                    "CFBundleURLTypes": [
                        {
                            "xml": "<array><dict><key>CFBundleURLSchemes</key><array><string>fb193596074317017</string></array></dict></array>",
                            "count": 1
                        }
                    ]
                }
            }
        }
    },
    "installed_plugins": {
        "cordova-plugin-whitelist": {
            "PACKAGE_NAME": "com.wiseit.coffee"
        },
        "org.apache.cordova.geolocation": {
            "PACKAGE_NAME": "com.wiseit.coffee"
        },
        "phonegap-facebook-plugin": {
            "APP_ID": "193596074317017",
            "APP_NAME": "Cofeine Test",
            "PACKAGE_NAME": "com.wiseit.coffee"
        }
    },
    "dependent_plugins": {}
}